{
	"info": {
		"_postman_id": "1636e476-0ef3-42af-8c02-d4a62862f484",
		"name": "WSTMARCHCall Chaining Data Driven",
		"schema": "https://schema.getpostman.com/json/collection/v2.1.0/collection.json"
	},
	"item": [
		{
			"name": "Add Employee Copy",
			"event": [
				{
					"listen": "test",
					"script": {
						"exec": [
							"// extract the id and save it in the variable\r",
							"var jsonData = pm.response.json();\r",
							"var id = jsonData.id;\r",
							"console.log(\"id = \" + id);\r",
							"// save the extracted id to the environment variable\r",
							"// even if the environment exists or not.. it will \r",
							"// create a new if does not exist.\r",
							"pm.environment.set(\"employeeid\", id);\r",
							"\r",
							"pm.test(\"Status code is 200\", function () {\r",
							"    pm.response.to.have.status(201);\r",
							"});\r",
							""
						],
						"type": "text/javascript"
					}
				}
			],
			"request": {
				"method": "POST",
				"header": [],
				"body": {
					"mode": "raw",
					"raw": "{\r\n        \"name\": \"{{name_var}}\",\r\n        \"salary\": \"{{salary_var}}\"\r\n}",
					"options": {
						"raw": {
							"language": "json"
						}
					}
				},
				"url": {
					"raw": "http://localhost:3000/employees",
					"protocol": "http",
					"host": [
						"localhost"
					],
					"port": "3000",
					"path": [
						"employees"
					]
				}
			},
			"response": []
		},
		{
			"name": "Update Employee Copy",
			"event": [
				{
					"listen": "test",
					"script": {
						"exec": [
							"pm.test(\"Status code is 200\", function () {\r",
							"    pm.response.to.have.status(200);\r",
							"});"
						],
						"type": "text/javascript"
					}
				}
			],
			"request": {
				"method": "PUT",
				"header": [],
				"body": {
					"mode": "raw",
					"raw": "{\r\n        \"name\": \"{{updatename_var}}\",\r\n        \"salary\": \"4000\"\r\n}",
					"options": {
						"raw": {
							"language": "json"
						}
					}
				},
				"url": {
					"raw": "http://localhost:3000/employees/{{employeeid}}",
					"protocol": "http",
					"host": [
						"localhost"
					],
					"port": "3000",
					"path": [
						"employees",
						"{{employeeid}}"
					]
				}
			},
			"response": []
		},
		{
			"name": "delete employee Copy",
			"event": [
				{
					"listen": "test",
					"script": {
						"exec": [
							"pm.test(\"Status code is 200\", function () {\r",
							"    pm.response.to.have.status(200);\r",
							"});"
						],
						"type": "text/javascript"
					}
				}
			],
			"request": {
				"method": "DELETE",
				"header": [],
				"url": {
					"raw": "http://localhost:3000/employees/{{employeeid}}",
					"protocol": "http",
					"host": [
						"localhost"
					],
					"port": "3000",
					"path": [
						"employees",
						"{{employeeid}}"
					]
				}
			},
			"response": []
		}
	],
	"event": [
		{
			"listen": "prerequest",
			"script": {
				"type": "text/javascript",
				"exec": [
					""
				]
			}
		},
		{
			"listen": "test",
			"script": {
				"type": "text/javascript",
				"exec": [
					""
				]
			}
		}
	],
	"variable": [
		{
			"key": "employeeid",
			"value": "10"
		},
		{
			"key": "employeeidcollection",
			"value": 24
		}
	]
}